<?xml version="1.0" standalone="no"?>
<!DOCTYPE svg PUBLIC "-//W3C//DTD SVG 1.1//EN" "http://www.w3.org/Graphics/SVG/1.1/DTD/svg11.dtd" >
<svg xmlns="http://www.w3.org/2000/svg">
<metadata>
This is a custom SVG font generated by IcoMoon.
<iconset grid="16"></iconset>
</metadata>
<defs>
<font id="icons" horiz-adv-x="512" >
<font-face units-per-em="512" ascent="480" descent="-32" />
<missing-glyph horiz-adv-x="512" />
<glyph class="hidden" unicode="&#xf000;" d="M0,480L 512 -32L0 -32 z" horiz-adv-x="0" />
<glyph unicode="&#xe000;" d="M 78.604,366.117l0-70.363 L 0.634,295.753 l0-91.282 l 79.896,0 l0-235.837 l 91.282-0.634l 0.634,234.569l 80.53,0 l 10.142,93.818L 172.446,296.411 
		c0,1.902,0,55.174,0,55.174c0,43.739, 32.963,46.275, 32.963,46.275l 62.123,0 l0,83.7 l-69.096,0 C 198.437,481.512, 77.97,489.118, 78.604,366.117z" horiz-adv-x="268.19"  />
<glyph unicode="&#xe002;" d="M 658.286,427.947c-17.993-27.209-40.399-50.566-67.145-70.071l0-17.676 c0-30.013-3.852-60.172-11.459-90.502
			c-7.607-30.306-18.53-59.782-32.744-88.405c-14.287-28.599-32.5-55.345-54.833-80.189c-22.26-24.869-47.25-46.568-74.898-65.097
			c-27.624-18.554-59.49-33.158-95.622-43.861C 285.501-38.583, 247.369-43.922, 207.311-43.922C 126.098-43.922, 57.003-25.612,0,11.008
			c 9.85-1.487, 20.578-2.267, 32.134-2.267c 30.013,0, 59.343,5.778, 88.088,17.359c 28.721,11.581, 55.174,27.112, 79.409,46.616
			c-28.94,0.219-55.028,9.167-78.287,26.843c-23.235,17.676-39.034,40.009-47.421,67.023c 8.997-1.731, 17.359-2.584, 25.064-2.584
			c 12.434,0, 24.43,1.585, 35.986,4.803c-31.061,6.193-56.881,21.675-77.458,46.47C 36.962,240.067, 26.697,268.739, 26.697,301.312L 26.697,302.921 
			c 19.285-10.508, 39.619-16.067, 61.074-16.725C 69.12,298.606, 54.37,314.673, 43.569,334.397C 32.719,354.121, 27.331,375.333, 27.331,398.056
			c0,22.065, 6.095,43.934, 18.334,65.56C 79.506,422.485, 120.418,389.864, 168.448,365.726s 99.742-37.669, 155.258-40.643
			c-1.926,8.363-2.901,18.749-2.901,31.159c0,37.303, 13.117,69.071, 39.326,95.305C 386.414,477.83, 418.182,490.947, 455.485,490.947
			c 38.351,0, 71.436-14.141, 99.304-42.423c 30.622,6.193, 59.075,17.14, 85.187,32.768c-10.289-32.573-30.135-57.515-59.441-74.898
			C 607.305,409.393, 633.246,416.585, 658.286,427.947z" horiz-adv-x="658.286"  />
<glyph unicode="&#xe003;" d="M 256,480 C 397.385,480 512,365.385 512,224 C 512,93.453 414.281-14.265 288-30.013 L 288,160 L 376,160 L 384,224 L 288,224 L 288,256 C 288,273.673 302.327,288 320,288 L 384,288 L 384,352 L 320,352 C 266.98,352 224,309.020 224,256 L 224,224 L 176,224 L 176,160 L 224,160 L 224,33.5 L 224-23.935 L 224-30.013 C 97.719-14.265 0,93.453 0,224 C 0,365.385 114.615,480 256,480 Z"  />
<glyph unicode="&#xe004;" d="M 256,480C 114.615,480,0,365.385,0,224s 114.615-256, 256-256s 256,114.615, 256,256S 397.385,480, 256,480z M 128,352l 256,0 
	c 4.569,0, 9.002-0.981, 13.072-2.831L 256,184.585L 114.928,349.17C 118.998,351.018, 123.431,352, 128,352z M 96,128L 96,320 
	c0,0.67, 0.028,1.336, 0.070,2l 93.832-109.471L 97.103,119.73C 96.381,122.398, 96,125.173, 96,128z M 384,96L 128,96 
	c-2.827,0-5.601,0.381-8.27,1.104l 91.059,91.059L 256,135.414l 45.212,52.747l 91.058-91.060C 389.6,96.381, 386.827,96, 384,96z
	 M 416,128c0-2.827-0.381-5.6-1.103-8.27l-92.8,92.799L 415.93,322c 0.042-0.664, 0.070-1.33, 0.070-2L 416,128 z"  />
<glyph unicode="&#xe005;" d="M 256,480C 114.615,480,0,365.385,0,224s 114.615-256, 256-256s 256,114.615, 256,256S 397.385,480, 256,480z M 403.121,299.456
	c 0.146-3.254, 0.221-6.528, 0.221-9.819c0-100.311-76.354-215.982-215.979-215.982c-42.868,0-82.768,12.568-116.363,34.107
	c 5.938-0.704, 11.981-1.063, 18.108-1.063c 35.565,0, 68.295,12.138, 94.275,32.497c-33.217,0.61-61.25,22.561-70.912,52.716
	c 4.637-0.884, 9.392-1.361, 14.283-1.361c 6.923,0, 13.629,0.928, 19.999,2.662c-34.726,6.976-60.893,37.656-60.893,74.434
	c0,0.32,0,0.639, 0.008,0.955c 10.235-5.685, 21.939-9.1, 34.382-9.494c-20.37,13.611-33.77,36.846-33.77,63.184
	c0,13.911, 3.744,26.952, 10.278,38.162c 37.439-45.927, 93.374-76.146, 156.462-79.314c-1.294,5.559-1.965,11.351-1.965,17.302
	c0,41.92, 33.99,75.906, 75.909,75.906c 21.833,0, 41.562-9.218, 55.409-23.97c 17.29,3.404, 33.537,9.721, 48.206,18.42
	c-5.668-17.727-17.705-32.603-33.376-41.997c 15.355,1.834, 29.984,5.916, 43.597,11.952
	C 430.825,323.529, 417.955,310.16, 403.121,299.456z"  />
<glyph unicode="&#xe006;" d="M 224,82.745L 121.373,201.372L 150.627,230.627L 224,173.255L 361.372,294.627L 390.628,265.373 	zM 415.886,416c 0.039-0.033, 0.081-0.075, 0.114-0.115l0-383.771 c-0.033-0.039-0.075-0.081-0.114-0.114L 96.114,32 
	c-0.040,0.033-0.081,0.075-0.114,0.114L 96,415.886 c 0.033,0.040, 0.075,0.081, 0.115,0.114L 32,416 l0-384 c0-35.2, 28.8-64, 64-64l 320,0 
	c 35.2,0, 64,28.8, 64,64L 480,416 L 415.886,416 z M 320,416L 320,448 c0,17.673-14.327,32-32,32l-64,0 c-17.673,0-32-14.327-32-32l0-32 l-64,0 l0-64 l 256,0 L 384,416 L 320,416 z
	 M 288,416l-64,0 L 224,448 l 64,0 L 288,416 z"  />
<glyph unicode="&#xe007;" d="M 311.413,128.632c-11.055,1.759-11.307,32.157-11.307,32.157s 32.484,32.158, 39.564,75.401
	c 19.045,0, 30.809,45.973, 11.761,62.148C 352.226,315.365, 375.911,432, 256,432c-119.911,0-96.225-116.635-95.432-133.662
	c-19.047-16.175-7.285-62.148, 11.761-62.148c 7.079-43.243, 39.564-75.401, 39.564-75.401s-0.252-30.398-11.307-32.157
	C 164.976,122.966, 32,64.315, 32,0l 224,0 l 224,0 C 480,64.315, 347.024,122.966, 311.413,128.632z"  />
<glyph unicode="&#xe008;" d="M 192,224 L 32,224 L 32,288 L 192,288 L 192,352 L 288,256 L 192,160 ZM 512,480 L 512,64 L 320-32 L 320,64 L 128,64 L 128,192 L 160,192 L 160,96 L 320,96 L 320,384 L 448,448 L 160,448 L 160,320 L 128,320 L 128,480 Z"  />
<glyph unicode="&#xe009;" d="M 384,160 L 384,224 L 224,224 L 224,288 L 384,288 L 384,352 L 480,256 ZM 352,192 L 352,64 L 192,64 L 192-32 L 0,64 L 0,480 L 352,480 L 352,320 L 320,320 L 320,448 L 64,448 L 192,384 L 192,96 L 320,96 L 320,192 Z"  />
<glyph unicode="&#xe00a;" d="M 50,181.979l0,84.045 l 142.859,0 L 192.859,307.77 L 276.776,224l-83.917-83.77l0,41.748 L 50,181.978 z M 304.447,381.553
	c-36.184,0-69.513-12.206-96.11-32.714l 28.61-28.561c 19.632,13.826, 42.993,21.275, 67.5,21.275c 31.399,0, 60.919-12.228, 83.122-34.43
	C 409.772,284.919, 422,255.399, 422,224s-12.228-60.92-34.431-83.122c-22.203-22.203-51.723-34.431-83.122-34.431
	c-24.507,0-47.868,7.449-67.5,21.275l-28.611-28.561c 26.599-20.509, 59.928-32.715, 96.111-32.715
	C 391.461,66.447, 462,136.986, 462,224C 462,311.014, 391.461,381.553, 304.447,381.553z"  />
<glyph unicode="&#xe001;" d="M 367.497,77.313c-9.476,1.494-9.692,27.327-9.692,27.327s 27.844,27.328, 33.912,64.076
	c 16.326,0, 26.407,39.069, 10.082,52.814c 0.681,14.47, 20.984,113.588-81.799,113.588c-102.782,0-82.479-99.118-81.799-113.588
	c-16.327-13.745-6.244-52.814, 10.081-52.814c 6.067-36.748, 33.913-64.076, 33.913-64.076s-0.216-25.833-9.692-27.327
	C 241.979,72.497, 128,22.655, 128-32l 192,0 l 192,0 C 512,22.655, 398.021,72.497, 367.497,77.313zM 172.027,68.595c 22.047,13.575, 48.813,26.154, 70.769,33.712c-7.876,11.216-16.647,26.468-22.165,44.531
	c-7.703,6.283-13.972,15.266-17.999,26.301c-4.033,11.052-5.561,23.426-4.304,34.842c 0.902,8.196, 3.239,15.833, 6.825,22.544
	c-2.175,23.293-3.707,69.017, 26.224,102.366c 11.607,12.933, 26.278,22.23, 43.85,27.843C 272.090,393.114, 255.647,431.119, 192,431.119
	c-102.782,0-82.479-99.118-81.799-113.588c-16.327-13.745-6.244-52.814, 10.081-52.814c 6.067-36.748, 33.913-64.076, 33.913-64.076
	s-0.216-25.833-9.692-27.327C 113.979,168.497,0,118.655,0,64l 164.798,0 C 167.153,65.537, 169.551,67.070, 172.027,68.595z"  />
<glyph unicode="&#xe00b;" d="M 240,448C 107.452,448,0,340.548,0,208c0-132.549, 107.452-240, 240-240c 132.549,0, 240,107.451, 240,240
	C 480,340.548, 372.549,448, 240,448z M 375.795,128c 4.29,20.227, 6.998,41.696, 7.879,64l 63.723,0 c-1.668-22.098-6.812-43.557-15.34-64
	L 375.795,128 z M 104.205,288c-4.29-20.227-6.998-41.696-7.879-64L 32.604,224 c 1.668,22.097, 6.811,43.557, 15.339,64L 104.205,288 z M 343.018,288
	c 4.807-20.481, 7.699-41.927, 8.64-64L 256,224 l0,64 L 343.018,288 z M 256,320L 256,413.669 c 7.295-2.123, 14.522-5.685, 21.614-10.685
	c 13.291-9.37, 26.006-23.804, 36.77-41.743c 7.441-12.401, 13.876-26.208, 19.248-41.242L 256,319.999 z M 165.616,361.242
	c 10.764,17.939, 23.478,32.374, 36.77,41.743c 7.091,5, 14.319,8.562, 21.614,10.685L 224,320 l-77.632,0 
	C 151.741,335.033, 158.176,348.84, 165.616,361.242z M 224,288l0-64 l-95.657,0 c 0.94,22.073, 3.833,43.519, 8.639,64L 224,288 z M 47.944,128
	c-8.528,20.443-13.671,41.902-15.339,64l 63.722,0 c 0.881-22.304, 3.589-43.773, 7.879-64L 47.944,128 z M 128.343,192L 224,192 l0-64 l-87.018,0 
	C 132.176,148.48, 129.283,169.927, 128.343,192z M 224,96l0-93.67 c-7.294,2.123-14.522,5.686-21.614,10.685
	c-13.292,9.37-26.007,23.805-36.77,41.743c-7.441,12.402-13.875,26.209-19.249,41.242L 224,96 z M 314.384,54.758
	c-10.764-17.938-23.479-32.373-36.77-41.743c-7.092-4.999-14.319-8.562-21.614-10.685L 256,96 l 77.633,0 
	C 328.26,80.967, 321.825,67.16, 314.384,54.758z M 256,128l0,64 l 95.657,0 c-0.94-22.073-3.833-43.52-8.64-64L 256,128 z M 383.674,224
	c-0.881,22.304-3.589,43.773-7.879,64l 56.262,0 c 8.528-20.443, 13.672-41.903, 15.34-64L 383.674,224 z M 415.329,320l-47.95,0 
	c-9.319,29.381-22.188,55.147-37.658,75.714c 21.268-10.17, 40.529-23.808, 57.357-40.636C 397.818,344.339, 407.259,332.609, 415.329,320
	z M 92.922,355.078c 16.829,16.829, 36.090,30.466, 57.357,40.636c-15.471-20.567-28.338-46.333-37.658-75.714L 64.672,320 
	C 72.741,332.609, 82.183,344.339, 92.922,355.078z M 64.672,96l 47.949,0 c 9.32-29.381, 22.188-55.147, 37.659-75.715
	c-21.268,10.17-40.529,23.808-57.357,40.637C 82.183,71.661, 72.741,83.391, 64.672,96z M 387.078,60.922
	c-16.828-16.829-36.090-30.467-57.357-40.637c 15.471,20.567, 28.339,46.334, 37.658,75.715l 47.95,0 
	C 407.259,83.391, 397.818,71.661, 387.078,60.922z"  />
<glyph unicode="&#xe00c;" d="M 496.131,44.302L 374.855,147.449c-12.537,11.283-25.945,16.463-36.776,15.963C 366.707,196.946, 384,240.451, 384,288
	C 384,394.039, 298.039,480, 192,480C 85.962,480,0,394.039,0,288c0-106.039, 85.961-192, 192-192c 47.549,0, 91.054,17.293, 124.588,45.922
	c-0.5-10.831, 4.68-24.239, 15.963-36.776l 103.147-121.276c 17.661-19.623, 46.511-21.277, 64.11-3.678S 515.754,26.641, 496.131,44.302z
	 M 192,160c-70.692,0-128,57.308-128,128S 121.308,416, 192,416s 128-57.308, 128-128S 262.693,160, 192,160z"  />
<glyph unicode="&#xe00d;" d="M 435.2,454.4L 204.8,454.4 C 176.64,454.4, 154.112,431.36, 154.112,403.2l0-76.8 L 204.8,326.4 L 204.8,403.2 l 230.4,0 l0-358.4 L 204.8,44.8 l0,51.2 L 154.112,96 l0-51.2 c0-28.16, 22.528-51.2, 50.688-51.2l 230.4,0 c 28.16,0, 51.2,23.040, 51.2,51.2L 486.4,403.2 C 486.4,431.36, 463.36,454.4, 435.2,454.4z
	 M 256,111.36l 102.4,99.84l-102.4,99.84L 256,249.6 L 25.6,249.6 l0-76.8 l 230.4,0 L 256,111.36 z"  />
<glyph unicode="&#xe00e;" d="M 496,288L 320,288 L 320,464 c0,8.836-7.164,16-16,16l-96,0 c-8.836,0-16-7.164-16-16l0-176 L 16,288 c-8.836,0-16-7.164-16-16l0-96 
	c0-8.836, 7.164-16, 16-16l 176,0 l0-176 c0-8.836, 7.164-16, 16-16l 96,0 c 8.836,0, 16,7.164, 16,16L 320,160 l 176,0 c 8.836,0, 16,7.164, 16,16l0,96 
	C 512,280.836, 504.836,288, 496,288z"  />
<glyph unicode="&#xe00f;" d="M 507.331,68.67c-0.002,0.002-0.004,0.004-0.006,0.005L 352.003,224l 155.322,155.325c 0.002,0.002, 0.004,0.003, 0.006,0.005
		c 1.672,1.673, 2.881,3.627, 3.656,5.708c 2.123,5.688, 0.912,12.341-3.662,16.915L 433.952,475.326c-4.574,4.573-11.225,5.783-16.914,3.66
		c-2.080-0.775-4.035-1.984-5.709-3.655c0-0.002-0.002-0.003-0.004-0.005L 256.001,320L 100.677,475.325
		c-0.002,0.002-0.003,0.003-0.005,0.005c-1.673,1.671-3.627,2.88-5.707,3.655c-5.69,2.124-12.341,0.913-16.915-3.66L 4.676,401.951
		c-4.574-4.574-5.784-11.226-3.661-16.914c 0.776-2.080, 1.985-4.036, 3.656-5.708c 0.002-0.001, 0.003-0.003, 0.005-0.005L 160.001,224
		L 4.676,68.674c-0.001-0.002-0.003-0.003-0.004-0.005c-1.671-1.673-2.88-3.627-3.657-5.707c-2.124-5.688-0.913-12.341, 3.661-16.915
		l 73.374-73.373c 4.575-4.574, 11.226-5.784, 16.915-3.661c 2.080,0.776, 4.035,1.985, 5.708,3.656c 0.001,0.002, 0.003,0.003, 0.005,0.005
		l 155.324,155.325l 155.324-155.325c 0.002-0.001, 0.004-0.003, 0.006-0.004c 1.674-1.672, 3.627-2.881, 5.707-3.657
		c 5.689-2.123, 12.342-0.913, 16.914,3.661l 73.373,73.374c 4.574,4.574, 5.785,11.227, 3.662,16.915
		C 510.212,65.043, 509.003,66.997, 507.331,68.67z"  />
<glyph unicode="&#xe010;" d="M 432,480 C 476.182,480 512,444.183 512,400 C 512,381.99 506.045,365.371 496,352 L 464,320 L 352,432 L 384,464 C 397.371,474.045 413.989,480 432,480 ZM 32,112L0-32l 144,32l 296,296L 328,408L 32,112z M 357.789,298.211l-224-224l-27.578,27.578l 224,224L 357.789,298.211z"  />
<glyph unicode="&#x20;" horiz-adv-x="256" />
</font></defs></svg>